animation{
  name = "stopped",
  src_image = "animals/wolf.png",
  directions = {
    { x = 48, y = 0, frame_width = 16, frame_height = 16, origin_x = 8, origin_y = 12 },
    { x = 16, y = 0, frame_width = 16, frame_height = 16, origin_x = 8, origin_y = 12 },
    { x = 32, y = 0, frame_width = 16, frame_height = 16, origin_x = 8, origin_y = 12 },
    { x = 0, y = 0, frame_width = 16, frame_height = 16, origin_x = 8, origin_y = 12 },
  },
}
